{
  "project_info": {
    "project_number": "68944012315",
    "firebase_url": "https://simpleyoutubedownloader.firebaseio.com",
    "project_id": "simpleyoutubedownloader",
    "storage_bucket": "simpleyoutubedownloader.appspot.com"
  },
  "client": [
    {
      "client_info": {
        "mobilesdk_app_id": "1:68944012315:android:8bcda41117d23fcb",
        "android_client_info": {
          "package_name": "com.othersdev.simpleyoutubedownloader"
        }
      },
      "oauth_client": [
        {
          "client_id": "68944012315-jidu4qijek4c6f0asfgr6ff2secbcijh.apps.googleusercontent.com",
          "client_type": 1,
          "android_info": {
            "package_name": "com.othersdev.simpleyoutubedownloader",
            "certificate_hash": "2F277A7F9B49B1B8A4812ADA2D2CBB45217447CC"
          }
        },
        {
          "client_id": "68944012315-i0u89t9s504tsqikt0krnqi24sn4pr9i.apps.googleusercontent.com",
          "client_type": 3
        }
      ],
      "api_key": [
        {
          "current_key": "AIzaSyBNWkA8aHTTnWUbhKBay_nDh5ZkGwG1Oik"
        }
      ],
      "services": {
        "analytics_service": {
          "status": 1
        },
        "appinvite_service": {
          "status": 2,
          "other_platform_oauth_client": [
            {
              "client_id": "68944012315-i0u89t9s504tsqikt0krnqi24sn4pr9i.apps.googleusercontent.com",
              "client_type": 3
            }
          ]
        },
        "ads_service": {
          "status": 2
        }
      }
    }
  ],
  "configuration_version": "1"
}